ggtreeå­¦ä¹ ç¬”è®° | ğŸ§¬å°è“å“¥çš„çŸ¥è¯†è’åŸğŸ§¬
…
2
3
4
5
6
7
8
9
10
11
12
13
14

## # A tibble: 25 x 5
##    parent  node branch.length label group
##     <int> <int>         <dbl> <chr> <fct>
##  1     20     1             4 A     1    
##  2     20     2             4 B     1    
##  3     19     3             5 C     1    
##  4     18     4             6 D     1    
##  5     17     5            21 E     1    
##  6     22     6             4 F     2    
##  7     22     7            12 G     2    
##  8     21     8             8 H     2    
##  9     24     9             5 I     0    
## 10     24    10             2 J     0    
## # â€¦ with 15 more rows
…
2
3
4
5
6
7
8
9
10
11
12
13
14

## # A tibble: 25 x 5
##    parent  node branch.length label group
##     <int> <int>         <dbl> <chr> <fct>
##  1     20     1             4 A     c1   
##  2     20     2             4 B     c1   
##  3     19     3             5 C     c1   
##  4     18     4             6 D     c1   
##  5     17     5            21 E     c1   
##  6     22     6             4 F     c2   
##  7     22     7            12 G     c2   
##  8     21     8             8 H     c2   
##  9     24     9             5 I     c3   
## 10     24    10             2 J     c3   
## # â€¦ with 15 more rows
…
